[gd_resource type="SpatialMaterial" load_steps=3 format=2]

[ext_resource path="res://textures/64x64/stones_n.png" type="Texture" id=1]
[ext_resource path="res://textures/64x64/stones.png" type="Texture" id=2]

[resource]
albedo_texture = ExtResource( 2 )
normal_enabled = true
normal_scale = 1.0
normal_texture = ExtResource( 1 )
